category	percent_de	direction	term	gene	descr
CHLOROPHYLL-SYN	87.5	-1	chlorophyllide <i>a</i> biosynthesis I	AT1G03475	Encodes coproporphyrinogen III oxidase, a key enzyme in the biosynthetic pathway of chlorophyll and heme, a tetrapyrrole pathway. Mutants express cytological and molecular markers associated with the defense responses, usually activated by pathogen infection.
CHLOROPHYLL-SYN	87.5	-1	chlorophyllide <i>a</i> biosynthesis I	AT1G03630	Encodes for a protein with protochlorophyllide oxidoreductase activity. The enzyme is NADPH- and light-dependent.
CHLOROPHYLL-SYN	87.5	-1	chlorophyllide <i>a</i> biosynthesis I	AT1G08520	Encodes the CHLD subunit of the Mg-chelatase enzyme involved in chlorophyll biosynthesis. Lines carrying recessive mutations of this locus are white and seedling lethal.
CHLOROPHYLL-SYN	87.5	-1	chlorophyllide <i>a</i> biosynthesis I	AT2G40490	HEME2; FUNCTIONS IN: uroporphyrinogen decarboxylase activity; INVOLVED IN: porphyrin biosynthetic process; LOCATED IN: chloroplast, chloroplast stroma, chloroplast envelope; EXPRESSED IN: 25 plant structures; EXPRESSED DURING: 14 growth stages; CONTAINS InterPro DOMAIN/s: Uroporphyrinogen decarboxylase HemE (InterPro:IPR006361), Uroporphyrinogen decarboxylase (URO-D) (InterPro:IPR000257); BEST Arabidopsis thaliana protein match is: Uroporphyrinogen decarboxylase (TAIR:AT3G14930.2); Has 7458 Blast hits to 7455 proteins in 2032 species: Archae - 137; Bacteria - 4041; Metazoa - 236; Fungi - 136; Plants - 121; Viruses - 0; Other Eukaryotes - 2787 (source: NCBI BLink).
CHLOROPHYLL-SYN	87.5	-1	chlorophyllide <i>a</i> biosynthesis I	AT3G14930	HEME1; FUNCTIONS IN: uroporphyrinogen decarboxylase activity; INVOLVED IN: response to cadmium ion; LOCATED IN: chloroplast; EXPRESSED IN: 23 plant structures; EXPRESSED DURING: 14 growth stages; CONTAINS InterPro DOMAIN/s: Uroporphyrinogen decarboxylase HemE (InterPro:IPR006361), Uroporphyrinogen decarboxylase (URO-D) (InterPro:IPR000257); BEST Arabidopsis thaliana protein match is: Uroporphyrinogen decarboxylase (TAIR:AT2G40490.1); Has 35333 Blast hits to 34131 proteins in 2444 species: Archae - 798; Bacteria - 22429; Metazoa - 974; Fungi - 991; Plants - 531; Viruses - 0; Other Eukaryotes - 9610 (source: NCBI BLink).
CHLOROPHYLL-SYN	87.5	-1	chlorophyllide <i>a</i> biosynthesis I	AT3G56940	Encodes a putative ZIP protein with varying mRNA accumulation in leaves, stems and roots.  Has a consensus carboxylate-bridged di-iron binding site.
CHLOROPHYLL-SYN	87.5	-1	chlorophyllide <i>a</i> biosynthesis I	AT4G18480	Encodes the CHLI subunit of magnesium chelatase which is required for chlorophyll biosynthesis. All four cysteine residues of the protein form two disulfide bonds (Cys102-Cys193 and Cys354-Cys396) under oxidized conditions but are fully reduced by reduction. It was suggested that the redox state of CHLI is regulated in vivo by the change of the redox environment in the chloroplasts probably via the Trx system.
CHLOROPHYLL-SYN	87.5	-1	chlorophyllide <i>a</i> biosynthesis I	AT4G25080	Encodes a protein with methyltransferase activity responsible for the methylation of magnesium protoporphyrin IX. Mutants defective in this gene are affected in chlorophyll biosynthesis and show a reduction in the accumulation of a number of major thylakoid-associated proteins including components of PSI (LHCI), PSII (LHCII, D1, CP43) and the cytochrome b6f complex (Cytf). By contrast, no significant changes were detected for the proteins of the stroma and the chloroplast envelope.
CHLOROPHYLL-SYN	87.5	-1	chlorophyllide <i>a</i> biosynthesis I	AT4G27440	light-dependent NADPH:protochlorophyllide oxidoreductase B
CHLOROPHYLL-SYN	87.5	-1	chlorophyllide <i>a</i> biosynthesis I	AT5G13630	Encodes magnesium chelatase involved in plastid-to-nucleus signal transduction.
CHLOROPHYLL-SYN	87.5	-1	chlorophyllide <i>a</i> biosynthesis I	AT5G14220	Encodes PPO2, a putative protoporphyrinogen oxidase based on sequence homology.  Also known as MEE61 (maternal effect embryo arrest 61).  mee61 mutant shows arrested endosperm development.
CHLOROPHYLL-SYN	87.5	-1	chlorophyllide <i>a</i> biosynthesis I	AT5G18660	Encodes a protein with 3,8-divinyl protochlorophyllide a 8-vinyl reductase activity. Mutants accumulate divinyl chlorophyll rather than monovinyl chlorophyll.
CHLOROPHYLL-SYN	87.5	-1	chlorophyllide <i>a</i> biosynthesis I	AT5G45930	encodes a second Chl I gene (CHLI2), a subunit of magnesium chelatase which is required for chlorophyll biosynthesis.    Has ATPase activity, regulated by TRX-f. Involved in the assembly of the Mg chelatase complex.
CHLOROPHYLL-SYN	87.5	-1	chlorophyllide <i>a</i> biosynthesis I	AT5G54190	light-dependent NADPH:protochlorophyllide oxidoreductase A
SULFMETII-PWY	80	1	sulfate reduction II (assimilatory)	AT1G18070	Translation elongation factor EF1A/initiation factor IF2gamma family protein; FUNCTIONS IN: translation factor activity, nucleic acid binding, GTP binding, GTPase activity; EXPRESSED IN: 25 plant structures; EXPRESSED DURING: 15 growth stages; CONTAINS InterPro DOMAIN/s: Translation elongation factor EFTu/EF1A, C-terminal (InterPro:IPR004160), Translation elongation factor EFTu/EF1A, domain 2 (InterPro:IPR004161), Translation elongation factor EF1A/initiation factor IF2gamma, C-terminal (InterPro:IPR009001), Protein synthesis factor, GTP-binding (InterPro:IPR000795), Translation elongation/initiation factor/Ribosomal, beta-barrel (InterPro:IPR009000); BEST Arabidopsis thaliana protein match is: GTP binding Elongation factor Tu family protein (TAIR:AT5G60390.3).
SULFMETII-PWY	80	-1	sulfate reduction II (assimilatory)	AT1G19920	encodes a chloroplast form of ATP sulfurylase.
SULFMETII-PWY	80	-1	sulfate reduction II (assimilatory)	AT1G62180	encodes a adenosine 5'-phosphosulfate reductase, involved in sulfate assimilation. Is a major effect locus for natural variation of shoot sulfate content in Arabidopsis.
SULFMETII-PWY	80	-1	sulfate reduction II (assimilatory)	AT3G22890	encodes ATP sulfurylase, the first enzyme in the sulfate assimilation pathway of Arabidopsis. It may also participate in selenium metabolism.
SULFMETII-PWY	80	-1	sulfate reduction II (assimilatory)	AT4G04610	Encodes a protein disulfide isomerase-like (PDIL) protein, a member of a multigene family within the thioredoxin (TRX) superfamily.  This protein also belongs to the adenosine 5'-phosphosulfate reductase-like (APRL) group.
SULFMETII-PWY	80	-1	sulfate reduction II (assimilatory)	AT4G14680	ATP sulfurylase
SULFMETII-PWY	80	-1	sulfate reduction II (assimilatory)	AT4G21990	Encodes a protein disulfide isomerase-like (PDIL) protein, a member of a multigene family within the thioredoxin (TRX) superfamily.  This protein also belongs to the adenosine 5'-phosphosulfate reductase-like (APRL) group.
SULFMETII-PWY	80	-1	sulfate reduction II (assimilatory)	AT5G04590	A.thaliana gene encoding sulfite reductase.
PWY-6051	76.9	1	2,4,6-trinitrotoluene degradation	AT1G05680	Encodes a UDP-glucosyltransferase, UGT74E2,  that acts on IBA (indole-3-butyric acid) and affects auxin homeostasis. The transcript and protein levels of this enzyme are strongly induced by H2O2 and may allow integration of ROS (reactive oxygen species) and auxin signaling. This enzyme can also transfer glycosyl groups to several compounds related to the explosive TNT when this synthetic compound is taken up from the environment.
PWY-6051	76.9	1	2,4,6-trinitrotoluene degradation	AT1G10400	UDP-Glycosyltransferase superfamily protein; FUNCTIONS IN: UDP-glycosyltransferase activity, transferase activity, transferring glycosyl groups; INVOLVED IN: metabolic process; LOCATED IN: endomembrane system; EXPRESSED IN: root; CONTAINS InterPro DOMAIN/s: UDP-glucuronosyl/UDP-glucosyltransferase (InterPro:IPR002213), Tudor subgroup (InterPro:IPR018351); BEST Arabidopsis thaliana protein match is: UDP-Glycosyltransferase superfamily protein (TAIR:AT5G14860.1); Has 30201 Blast hits to 17322 proteins in 780 species: Archae - 12; Bacteria - 1396; Metazoa - 17338; Fungi - 3422; Plants - 5037; Viruses - 0; Other Eukaryotes - 2996 (source: NCBI BLink).
PWY-6051	76.9	1	2,4,6-trinitrotoluene degradation	AT2G15480	UDP-glucosyl transferase 73B5 (UGT73B5); FUNCTIONS IN: quercetin 3-O-glucosyltransferase activity, UDP-glycosyltransferase activity, UDP-glucosyltransferase activity, transferase activity, transferring glycosyl groups; INVOLVED IN: response to other organism; LOCATED IN: endomembrane system; EXPRESSED IN: 9 plant structures; EXPRESSED DURING: L mature pollen stage, M germinated pollen stage, LP.04 four leaves visible, 4 anthesis, petal differentiation and expansion stage; CONTAINS InterPro DOMAIN/s: UDP-glucuronosyl/UDP-glucosyltransferase (InterPro:IPR002213); BEST Arabidopsis thaliana protein match is: UDP-glycosyltransferase 73B4 (TAIR:AT2G15490.3).
PWY-6051	76.9	1	2,4,6-trinitrotoluene degradation	AT2G15490	UDP-glycosyltransferase 73B4 (UGT73B4); FUNCTIONS IN: quercetin 3-O-glucosyltransferase activity, UDP-glycosyltransferase activity, quercetin 7-O-glucosyltransferase activity, UDP-glucosyltransferase activity, transferase activity, transferring glycosyl groups; INVOLVED IN: response to other organism; LOCATED IN: endomembrane system; EXPRESSED IN: root; CONTAINS InterPro DOMAIN/s: UDP-glucuronosyl/UDP-glucosyltransferase (InterPro:IPR002213); BEST Arabidopsis thaliana protein match is: UDP-glucosyl transferase 73B5 (TAIR:AT2G15480.1); Has 35333 Blast hits to 34131 proteins in 2444 species: Archae - 798; Bacteria - 22429; Metazoa - 974; Fungi - 991; Plants - 531; Viruses - 0; Other Eukaryotes - 9610 (source: NCBI BLink).
PWY-6051	76.9	1	2,4,6-trinitrotoluene degradation	AT2G36750	UDP-glucosyl transferase 73C1 (UGT73C1); CONTAINS InterPro DOMAIN/s: UDP-glucuronosyl/UDP-glucosyltransferase (InterPro:IPR002213); BEST Arabidopsis thaliana protein match is: don-glucosyltransferase 1 (TAIR:AT2G36800.1); Has 7705 Blast hits to 7611 proteins in 415 species: Archae - 0; Bacteria - 205; Metazoa - 2197; Fungi - 31; Plants - 5129; Viruses - 79; Other Eukaryotes - 64 (source: NCBI BLink).
PWY-6051	76.9	1	2,4,6-trinitrotoluene degradation	AT2G36760	UDP-glucosyl transferase 73C2 (UGT73C2); FUNCTIONS IN: transferase activity, transferring hexosyl groups, UDP-glycosyltransferase activity, transferase activity, transferring glycosyl groups; INVOLVED IN: metabolic process; LOCATED IN: endomembrane system; EXPRESSED IN: flower, stamen; EXPRESSED DURING: 4 anthesis; CONTAINS InterPro DOMAIN/s: UDP-glucuronosyl/UDP-glucosyltransferase (InterPro:IPR002213); BEST Arabidopsis thaliana protein match is: UDP-Glycosyltransferase superfamily protein (TAIR:AT2G36780.1); Has 7948 Blast hits to 7837 proteins in 437 species: Archae - 0; Bacteria - 325; Metazoa - 2303; Fungi - 35; Plants - 5121; Viruses - 97; Other Eukaryotes - 67 (source: NCBI BLink).
PWY-6051	76.9	1	2,4,6-trinitrotoluene degradation	AT2G36770	UDP-Glycosyltransferase superfamily protein; FUNCTIONS IN: transferase activity, transferring hexosyl groups, UDP-glycosyltransferase activity, transferase activity, transferring glycosyl groups; INVOLVED IN: metabolic process; LOCATED IN: cellular_component unknown; CONTAINS InterPro DOMAIN/s: UDP-glucuronosyl/UDP-glucosyltransferase (InterPro:IPR002213); BEST Arabidopsis thaliana protein match is: UDP-Glycosyltransferase superfamily protein (TAIR:AT2G36780.1); Has 7907 Blast hits to 7812 proteins in 435 species: Archae - 0; Bacteria - 273; Metazoa - 2293; Fungi - 33; Plants - 5130; Viruses - 108; Other Eukaryotes - 70 (source: NCBI BLink).
PWY-6051	76.9	1	2,4,6-trinitrotoluene degradation	AT2G36780	UDP-Glycosyltransferase superfamily protein; FUNCTIONS IN: UDP-glycosyltransferase activity, transferase activity, transferring glycosyl groups; INVOLVED IN: metabolic process; LOCATED IN: cellular_component unknown; CONTAINS InterPro DOMAIN/s: UDP-glucuronosyl/UDP-glucosyltransferase (InterPro:IPR002213); BEST Arabidopsis thaliana protein match is: UDP-Glycosyltransferase superfamily protein (TAIR:AT2G36770.1); Has 8038 Blast hits to 7938 proteins in 460 species: Archae - 0; Bacteria - 340; Metazoa - 2374; Fungi - 35; Plants - 5114; Viruses - 105; Other Eukaryotes - 70 (source: NCBI BLink).
PWY-6051	76.9	1	2,4,6-trinitrotoluene degradation	AT3G53160	UDP-glucosyl transferase 73C7 (UGT73C7); CONTAINS InterPro DOMAIN/s: UDP-glucuronosyl/UDP-glucosyltransferase (InterPro:IPR002213); BEST Arabidopsis thaliana protein match is: UDP-Glycosyltransferase superfamily protein (TAIR:AT2G36770.1); Has 7083 Blast hits to 7007 proteins in 427 species: Archae - 0; Bacteria - 435; Metazoa - 1539; Fungi - 21; Plants - 4999; Viruses - 33; Other Eukaryotes - 56 (source: NCBI BLink).
PWY-6051	76.9	1	2,4,6-trinitrotoluene degradation	AT4G34131	UDP-glucosyl transferase 73B3 (UGT73B3); FUNCTIONS IN: transferase activity, transferring hexosyl groups, quercetin 3-O-glucosyltransferase activity, UDP-glycosyltransferase activity, UDP-glucosyltransferase activity; INVOLVED IN: response to cyclopentenone, response to other organism; LOCATED IN: endomembrane system; CONTAINS InterPro DOMAIN/s: UDP-glucuronosyl/UDP-glucosyltransferase (InterPro:IPR002213); BEST Arabidopsis thaliana protein match is: UDP-glucosyltransferase 73B2 (TAIR:AT4G34135.1); Has 30201 Blast hits to 17322 proteins in 780 species: Archae - 12; Bacteria - 1396; Metazoa - 17338; Fungi - 3422; Plants - 5037; Viruses - 0; Other Eukaryotes - 2996 (source: NCBI BLink).
PWY-101	66	-1	photosynthesis light reactions	AT1G03130	Encodes a protein predicted by sequence similarity with spinach PsaD to be photosystem I reaction center subunit II (PsaD2)
PWY-101	66	-1	photosynthesis light reactions	AT1G06680	Encodes a 23 kD extrinsic protein that is part of photosystem II and participates in the regulation of oxygen evolution. Phosphorylation of this protein is dependent on calcium.
PWY-101	66	-1	photosynthesis light reactions	AT1G08380	Encodes subunit O of photosystem I.
PWY-101	66	-1	photosynthesis light reactions	AT1G14150	Encodes a subunit of the NAD(P)H dehydrogenase complex located in the chloroplast thylakoid lumen.
PWY-101	66	-1	photosynthesis light reactions	AT1G20020	Encodes a leaf-type ferredoxin:NADP(H) oxidoreductase.  It is present in both chloroplast stroma and thylakoid membranes but is more abundant in the stroma
PWY-101	66	-1	photosynthesis light reactions	AT1G30380	Encodes subunit K of photosystem I reaction center.
PWY-101	66	-1	photosynthesis light reactions	AT1G31330	Encodes subunit F of photosystem I.
PWY-101	66	-1	photosynthesis light reactions	AT1G44575	Encoding PSII-S (CP22), a ubiquitous pigment-binding protein associated with photosystem II (PSII) of higher plants. Involved in nonphotochemical quenching rather than in photosynthesis. Mutant has a normal violaxanthin cycle but has a limited capacity of quenching singlet excited chlorophylls and is tolerant to lipid peroxidation.
PWY-101	66	-1	photosynthesis light reactions	AT1G52230	Phosphorylation of this protein is dependent on calcium.
PWY-101	66	-1	photosynthesis light reactions	AT1G55670	Encodes subunit G of photosystem I, an 11-kDa membrane protein that plays an  important role in electron transport between plastocyanin and PSI and is involved in  the stability of the PSI complex. PSI-G subunit is bound to  PSI-B and is in contact with Lhca1. The protein inserts into thylakoids by  a direct or "spontaneous" pathway that does not involve the activities of  any known chloroplast protein-targeting machinery. PSI-G appears to be directly or indirectly involved in the interaction between Photosystem I and plastocyanin.
PWY-101	66	-1	photosynthesis light reactions	AT1G67740	PsbY precursor (psbY) mRNA. This single nuclear gene is imported into the chloroplasts where it is processed into two integral membrane proteins with identical topology (PsbY-1 and PsbY-2). The protein appears to bind manganese but its role is not well understood.
PWY-101	66	-1	photosynthesis light reactions	AT1G76450	Photosystem II reaction center PsbP family protein; FUNCTIONS IN: calcium ion binding; INVOLVED IN: photosynthesis; LOCATED IN: thylakoid, thylakoid lumen, chloroplast thylakoid membrane, chloroplast thylakoid lumen, chloroplast; EXPRESSED IN: 23 plant structures; EXPRESSED DURING: 14 growth stages; CONTAINS InterPro DOMAIN/s: Photosystem II oxygen evolving complex protein PsbP (InterPro:IPR002683), Mog1/PsbP/DUF1795, alpha/beta/alpha sandwich (InterPro:IPR016124); Has 57 Blast hits to 57 proteins in 26 species: Archae - 0; Bacteria - 0; Metazoa - 0; Fungi - 0; Plants - 51; Viruses - 0; Other Eukaryotes - 6 (source: NCBI BLink).
PWY-101	66	-1	photosynthesis light reactions	AT1G79040	Encodes for the 10 kDa PsbR subunit of photosystem II (PSII). This subunit appears to be involved in the stable assembly of PSII, particularly that of the oxygen-evolving complex subunit PsbP. Mutants defective in this gene have reduced amounts of subunits PsbP and PsbQ in PSII. In turn, assembly of PsbR is dependent on the presence of PsbJ.
PWY-101	66	-1	photosynthesis light reactions	AT2G06520	Encodes a protein with sequence similarity to the spinach photosystem II subunit PsbX.
PWY-101	66	-1	photosynthesis light reactions	AT2G20260	Encodes subunit E of photosystem I.
PWY-101	66	-1	photosynthesis light reactions	AT2G28605	Encodes a PsbP domain-OEC23 like protein localized in thylakoid (peripheral-lumenal side).
PWY-101	66	-1	photosynthesis light reactions	AT2G30570	Encodes PsbW, a protein similar to photosystem II reaction center subunit W. Loss of PsbW destabilizes the supramolecular organization of PSII.
PWY-101	66	-1	photosynthesis light reactions	AT2G46820	Encodes the P subunit of Photosystem I. About 25% of the TMP14 pool appeared to be phosphorylated, and this ratio is not affected by light. Contains seven phosphorylation sites on threonine residue and chloroplast targeting signal. Located in the proximity of PSI-L, -H and -O subunits.
PWY-101	66	-1	photosynthesis light reactions	AT3G01440	Encodes a subunit of the NAD(P)H complex located in the chloroplast thylakoid lumen.
PWY-101	66	-1	photosynthesis light reactions	AT3G16140	Encodes subunit H of photosystem I reaction center subunit VI.
PWY-101	66	-1	photosynthesis light reactions	AT3G21055	Encodes photosystem II 5 kD protein subunit PSII-T. This is a nuclear-encoded gene (PsbTn) which also has a plastid-encoded paralog (PsbTc).
PWY-101	66	-1	photosynthesis light reactions	AT3G50820	Encodes a protein which is an extrinsic subunit of photosystem II and which has been proposed to play a central role in stabilization of the catalytic manganese cluster. In <i>Arabidopsis thaliana</i> the PsbO proteins are encoded by two genes: <i>psbO1</i> and <i>psbO2</i>. PsbO2 is the minor isoform in the wild-type. Mutants defective in this gene have been shown to be affected in the dephosphorylation of the D1 protein of PSII.
PWY-101	66	-1	photosynthesis light reactions	AT3G56650	Mog1/PsbP/DUF1795-like photosystem II reaction center PsbP family protein; FUNCTIONS IN: calcium ion binding; INVOLVED IN: photosynthesis; LOCATED IN: thylakoid, thylakoid lumen, chloroplast thylakoid lumen, chloroplast stroma, chloroplast; EXPRESSED IN: 21 plant structures; EXPRESSED DURING: 14 growth stages; CONTAINS InterPro DOMAIN/s: Photosystem II oxygen evolving complex protein PsbP (InterPro:IPR002683), Mog1/PsbP/DUF1795, alpha/beta/alpha sandwich (InterPro:IPR016124), Mog1/PsbP, alpha/beta/alpha sandwich (InterPro:IPR016123); BEST Arabidopsis thaliana protein match is: Mog1/PsbP/DUF1795-like photosystem II reaction center PsbP family protein (TAIR:AT1G77090.1); Has 131 Blast hits to 131 proteins in 35 species: Archae - 0; Bacteria - 29; Metazoa - 0; Fungi - 0; Plants - 100; Viruses - 0; Other Eukaryotes - 2 (source: NCBI BLink).
PWY-101	66	-1	photosynthesis light reactions	AT4G02770	Encodes a protein predicted by sequence similarity with spinach PsaD to be photosystem I reaction center subunit II (PsaD1)
PWY-101	66	-1	photosynthesis light reactions	AT4G03280	Encodes the Rieske FeS center of cytochrome b6f complex. Gene is expressed in shoot but not in root. Mutant has reduced electron transport at saturating light intensities and Q-cycle activity is hypersensitive to acidification of the thylakoid lumen.
PWY-101	66	-1	photosynthesis light reactions	AT4G05180	Encodes the PsbQ subunit of the oxygen evolving complex of photosystem II.
PWY-101	66	-1	photosynthesis light reactions	AT4G12800	Encodes subunit L of photosystem I reaction center.
PWY-101	66	-1	photosynthesis light reactions	AT4G15510	Photosystem II reaction center PsbP family protein; FUNCTIONS IN: calcium ion binding; INVOLVED IN: photosynthesis; LOCATED IN: in 6 components; EXPRESSED IN: 21 plant structures; EXPRESSED DURING: 14 growth stages; CONTAINS InterPro DOMAIN/s: Photosystem II oxygen evolving complex protein PsbP (InterPro:IPR002683), Mog1/PsbP/DUF1795, alpha/beta/alpha sandwich (InterPro:IPR016124), Mog1/PsbP, alpha/beta/alpha sandwich (InterPro:IPR016123); BEST Arabidopsis thaliana protein match is: PsbP-like protein 1 (TAIR:AT3G55330.1); Has 35333 Blast hits to 34131 proteins in 2444 species: Archae - 798; Bacteria - 22429; Metazoa - 974; Fungi - 991; Plants - 531; Viruses - 0; Other Eukaryotes - 9610 (source: NCBI BLink).
PWY-101	66	-1	photosynthesis light reactions	AT4G21280	Encodes the PsbQ subunit of the oxygen evolving complex of photosystem II.
PWY-101	66	-1	photosynthesis light reactions	AT4G28750	mutant has Decreased effective quantum yield of photosystem II; Pale green plants; Reduced growth rate; Subunit E of Photosystem I
PWY-101	66	-1	photosynthesis light reactions	AT5G64040	Encodes the only subunit of photosystem I located entirely in the thylakoid lumen. May be involved in the interaction between plastocyanin and the photosystem I complex. Phosphorylation of this protein is dependent on calcium.
PWY-101	66	-1	photosynthesis light reactions	AT5G66190	Encodes a leaf-type ferredoxin:NADP(H) oxidoreductase.  It is present in both chloroplast stroma and thylakoid membranes but is more abundant in the thylakoid.  The affinity of this enzyme for ferredoxin is slightly, but significantly, higher than AtLFNR2, an isoform of the same enzyme.  AtLFNR1 forms a heterodimer with AtFNR2 and is also a prerequisite to attach AtFNR2 to the thylakoid membrane.
PWY-101	66	-1	photosynthesis light reactions	AT5G66570	Encodes a protein which is an extrinsic subunit of photosystem II and which has been proposed to play a central role in stabilization of the catalytic manganese cluster. In <i>Arabidopsis thaliana</i> the PsbO proteins are encoded by two genes: <i>psbO1</i> and <i>psbO2</i>. PsbO1 is the major isoform in the wild-type.
PWY-601	65.2	-1	glucosinolate biosynthesis from tryptophan	AT1G18590	encodes a desulfoglucosinolate sulfotransferase, involved in the final step of glucosinolate core structure biosynthesis. Has a broad-substrate specificity with preference with methionine-derived desulfoglucosinolates.
PWY-601	65.2	-1	glucosinolate biosynthesis from tryptophan	AT1G21100	O-methyltransferase family protein; FUNCTIONS IN: methyltransferase activity, O-methyltransferase activity, protein dimerization activity; LOCATED IN: cytosol; EXPRESSED IN: stem, cotyledon, hypocotyl, root, leaf; EXPRESSED DURING: LP.04 four leaves visible; CONTAINS InterPro DOMAIN/s: Winged helix-turn-helix transcription repressor DNA-binding (InterPro:IPR011991), Plant methyltransferase dimerisation (InterPro:IPR012967), O-methyltransferase, family 2 (InterPro:IPR001077), O-methyltransferase, COMT, eukaryota (InterPro:IPR016461); BEST Arabidopsis thaliana protein match is: O-methyltransferase family protein (TAIR:AT1G21130.1); Has 3375 Blast hits to 3370 proteins in 588 species: Archae - 3; Bacteria - 947; Metazoa - 107; Fungi - 659; Plants - 1542; Viruses - 0; Other Eukaryotes - 117 (source: NCBI BLink).
PWY-601	65.2	-1	glucosinolate biosynthesis from tryptophan	AT1G21120	O-methyltransferase family protein; FUNCTIONS IN: methyltransferase activity, O-methyltransferase activity, protein dimerization activity; LOCATED IN: cytosol; EXPRESSED IN: 9 plant structures; EXPRESSED DURING: LP.04 four leaves visible, LP.10 ten leaves visible, LP.08 eight leaves visible; CONTAINS InterPro DOMAIN/s: Winged helix-turn-helix transcription repressor DNA-binding (InterPro:IPR011991), Plant methyltransferase dimerisation (InterPro:IPR012967), O-methyltransferase, family 2 (InterPro:IPR001077), O-methyltransferase, COMT, eukaryota (InterPro:IPR016461); BEST Arabidopsis thaliana protein match is: O-methyltransferase family protein (TAIR:AT1G21110.1); Has 3310 Blast hits to 3305 proteins in 577 species: Archae - 1; Bacteria - 921; Metazoa - 104; Fungi - 640; Plants - 1542; Viruses - 0; Other Eukaryotes - 102 (source: NCBI BLink).
PWY-601	65.2	-1	glucosinolate biosynthesis from tryptophan	AT1G24100	Encodes a UDP-glucose:thiohydroximate S-glucosyltransferase, involved in glucosinolate biosynthesis
PWY-601	65.2	-1	glucosinolate biosynthesis from tryptophan	AT1G74090	encodes a desulfoglucosinolate sulfotransferase, involved in the final step of glucosinolate core structure biosynthesis. Has a broad-substrate specificity with preference with methionine-derived desulfoglucosinolates.
PWY-601	65.2	-1	glucosinolate biosynthesis from tryptophan	AT1G74100	encodes a desulfoglucosinolate sulfotransferase, involved in the final step of glucosinolate core structure biosynthesis. Has a broad-substrate specificity with different desulfoglucosinolates, the best substrate is indole-3-methyl-dsGS, followed by benzyl-dsGS. Expression was induced by wounding, jasmonate and ethylene stimulates.
PWY-601	65.2	-1	glucosinolate biosynthesis from tryptophan	AT2G20610	Confers auxin overproduction. Mutants have an over-proliferation of lateral roots. Encodes a C-S lyase involved in converting S-alkylthiohydroximate to thiohydroximate in glucosinolate biosynthesis.
PWY-601	65.2	-1	glucosinolate biosynthesis from tryptophan	AT2G22330	Encodes a cytochrome P450. Involved in tryptophan metabolism. Converts Trp to indole-3-acetaldoxime (IAOx), a precursor to IAA and indole glucosinolates.
PWY-601	65.2	-1	glucosinolate biosynthesis from tryptophan	AT4G13770	Encodes a cytochrome p450 enzyme that catalyzes the initial conversion of aldoximes to thiohydroximates in the synthesis of glucosinolates not derived from tryptophan.   Also has a role in auxin homeostasis.
PWY-601	65.2	-1	glucosinolate biosynthesis from tryptophan	AT4G31500	Encodes an oxime-metabolizing enzyme in the biosynthetic pathway of glucosinolates.  Is required for phytochrome signal transduction in red light.   Mutation confers auxin overproduction.
PWY-601	65.2	1	glucosinolate biosynthesis from tryptophan	AT4G37430	Encodes a member of the CYP81F cytochrome P450 monooxygenase subfamily.
PWY-601	65.2	-1	glucosinolate biosynthesis from tryptophan	AT4G39950	Belongs to cytochrome P450 and is involved in tryptophan metabolism. Converts Trp to indo-3-acetaldoxime (IAOx), a precursor to IAA and indole glucosinolates.
PWY-601	65.2	1	glucosinolate biosynthesis from tryptophan	AT5G53970	encodes tyrosine aminotransferase which is strongly induced upon aging and coronatine treatment
PWY-601	65.2	-1	glucosinolate biosynthesis from tryptophan	AT5G57220	member of CYP81F, involved in glucosinolate metabolism. Mutants had impaired resistance to fungi.
PWY-601	65.2	1	glucosinolate biosynthesis from tryptophan	AT5G67310	member of CYP81G
CALVIN-PWY	64.9	-1	Calvin-Benson-Bassham cycle	AT1G12900	glyceraldehyde 3-phosphate dehydrogenase A subunit 2 (GAPA-2); FUNCTIONS IN: NAD or NADH binding, glyceraldehyde-3-phosphate dehydrogenase activity; INVOLVED IN: oxidation reduction, glycolysis, glucose metabolic process; EXPRESSED IN: 22 plant structures; EXPRESSED DURING: 13 growth stages; CONTAINS InterPro DOMAIN/s: Glyceraldehyde 3-phosphate dehydrogenase subfamily (InterPro:IPR000173), Glyceraldehyde 3-phosphate dehydrogenase family (InterPro:IPR020831), Glyceraldehyde-3-phosphate dehydrogenase, type I (InterPro:IPR006424), Glyceraldehyde 3-phosphate dehydrogenase, active site (InterPro:IPR020830), Glyceraldehyde 3-phosphate dehydrogenase, catalytic domain (InterPro:IPR020829), Glyceraldehyde 3-phosphate dehydrogenase, catalytic domain, subgroup (InterPro:IPR020832), Glyceraldehyde 3-phosphate dehydrogenase, NAD(P) binding domain (InterPro:IPR020828); BEST Arabidopsis thaliana protein match is: glyceraldehyde 3-phosphate dehydrogenase A subunit (TAIR:AT3G26650.1).
CALVIN-PWY	64.9	-1	Calvin-Benson-Bassham cycle	AT1G32060	phosphoribulokinase (PRK); FUNCTIONS IN: protein binding, phosphoribulokinase activity, ATP binding; INVOLVED IN: response to cold, defense response to bacterium, biosynthetic process, peptidyl-cysteine S-nitrosylation; LOCATED IN: in 8 components; EXPRESSED IN: 24 plant structures; EXPRESSED DURING: 15 growth stages; CONTAINS InterPro DOMAIN/s: Phosphoribulokinase/uridine kinase (InterPro:IPR006083), Phosphoribulokinase (InterPro:IPR006082); BEST Arabidopsis thaliana protein match is: uridine kinase-like 5 (TAIR:AT3G27440.1); Has 6197 Blast hits to 6197 proteins in 2200 species: Archae - 37; Bacteria - 4118; Metazoa - 341; Fungi - 129; Plants - 1120; Viruses - 2; Other Eukaryotes - 450 (source: NCBI BLink).
CALVIN-PWY	64.9	-1	Calvin-Benson-Bassham cycle	AT1G42970	Encodes chloroplast localized glyceraldehyde-3-phosphate dehydrogenase that can use both NADH and NADPH to reduce 1,3-diphosphate glycerate. It forms A2B2 heterotetramers with GapA forms of the GADPH enzyme. These complexes are active in the light under reducing conditions, but show reduced NADPH-dependent activity in response to oxidized thioredoxins and increased NAD(H)/NADP(H) ratios due to the formation of inactive A8B8 hexadecamers.
CALVIN-PWY	64.9	-1	Calvin-Benson-Bassham cycle	AT1G43670	Encodes a fructose-1,6-bisphosphatase. This enzyme, in addition to catalyzing the formation of fructose-6-phosphate for sucrose biosynthesis, appears to play a role in fructose-mediated signaling that is independent of its enzymatic activity. atcfbp-1/fins1 mutants have reduced photosynthetic rates, elevated levels of starch and reduced levels of sucrose during the day. Although the protein is expected to be cytosolic, a GFP-tagged version localizes to the cytoplasm and the nucleus.
CALVIN-PWY	64.9	-1	Calvin-Benson-Bassham cycle	AT1G56190	Phosphoglycerate kinase family protein; FUNCTIONS IN: phosphoglycerate kinase activity; INVOLVED IN: response to cadmium ion, glycolysis; LOCATED IN: thylakoid, mitochondrion, chloroplast stroma, chloroplast, membrane; EXPRESSED IN: 28 plant structures; EXPRESSED DURING: 15 growth stages; CONTAINS InterPro DOMAIN/s: Phosphoglycerate kinase, N-terminal (InterPro:IPR015824), Phosphoglycerate kinase (InterPro:IPR001576), Phosphoglycerate kinase, C-terminal (InterPro:IPR015901), Phosphoglycerate kinase, conserved site (InterPro:IPR015911); BEST Arabidopsis thaliana protein match is: phosphoglycerate kinase 1 (TAIR:AT3G12780.1); Has 10902 Blast hits to 10876 proteins in 3041 species: Archae - 254; Bacteria - 5279; Metazoa - 453; Fungi - 193; Plants - 515; Viruses - 0; Other Eukaryotes - 4208 (source: NCBI BLink).
CALVIN-PWY	64.9	-1	Calvin-Benson-Bassham cycle	AT1G63290	Aldolase-type TIM barrel family protein; FUNCTIONS IN: ribulose-phosphate 3-epimerase activity, catalytic activity; INVOLVED IN: carbohydrate metabolic process, metabolic process; LOCATED IN: plasma membrane; EXPRESSED IN: 22 plant structures; EXPRESSED DURING: 13 growth stages; CONTAINS InterPro DOMAIN/s: Aldolase-type TIM barrel (InterPro:IPR013785), Ribulose-phosphate 3-epimerase (InterPro:IPR000056), Ribulose-phosphate binding barrel (InterPro:IPR011060); BEST Arabidopsis thaliana protein match is: Aldolase-type TIM barrel family protein (TAIR:AT3G01850.2); Has 8998 Blast hits to 8995 proteins in 2611 species: Archae - 49; Bacteria - 5545; Metazoa - 177; Fungi - 138; Plants - 141; Viruses - 0; Other Eukaryotes - 2948 (source: NCBI BLink).
CALVIN-PWY	64.9	-1	Calvin-Benson-Bassham cycle	AT1G67090	Encodes a member of the Rubisco small subunit (RBCS) multigene family: RBCS1A (At1g67090), RBCS1B (At5g38430), RBCS2B (At5g38420), and RBCS3B (At5g38410). Functions to yield sufficient Rubisco content for leaf photosynthetic capacity.
CALVIN-PWY	64.9	-1	Calvin-Benson-Bassham cycle	AT2G01290	Cytosolic ribose-5-phosphate isomerase.  Knockout mutation causes chloroplast dysfunction, late flowering  and premature cell death.
CALVIN-PWY	64.9	-1	Calvin-Benson-Bassham cycle	AT2G21170	Encodes a plastidic triose phosphate isomerase. Mutants with reduced pdTPI levels have difficulty transitioning from heterotrophic to autotrophic growth. The related phenotypes, such as chlorosis in light-grown seedlings may result from an accumulation of dihydroxyacetone phosphate (DHAP) and methylglyoxal (MG) in these mutants. Both splice variants appear to be expressed, but the At2g21170.2 variant appears to have a much narrower expression range limited to roots.
CALVIN-PWY	64.9	-1	Calvin-Benson-Bassham cycle	AT2G21330	fructose-bisphosphate aldolase 1 (FBA1); FUNCTIONS IN: fructose-bisphosphate aldolase activity, catalytic activity; INVOLVED IN: response to cadmium ion, pentose-phosphate shunt; LOCATED IN: in 8 components; EXPRESSED IN: 25 plant structures; EXPRESSED DURING: 15 growth stages; CONTAINS InterPro DOMAIN/s: Aldolase-type TIM barrel (InterPro:IPR013785), Fructose-bisphosphate aldolase, class-I (InterPro:IPR000741); BEST Arabidopsis thaliana protein match is: fructose-bisphosphate aldolase 2 (TAIR:AT4G38970.1); Has 4798 Blast hits to 4794 proteins in 909 species: Archae - 0; Bacteria - 735; Metazoa - 1150; Fungi - 8; Plants - 476; Viruses - 0; Other Eukaryotes - 2429 (source: NCBI BLink).
CALVIN-PWY	64.9	1	Calvin-Benson-Bassham cycle	AT2G45290	Transketolase; FUNCTIONS IN: catalytic activity, transketolase activity; INVOLVED IN: response to cadmium ion; LOCATED IN: chloroplast stroma, chloroplast; EXPRESSED IN: 25 plant structures; EXPRESSED DURING: 16 growth stages; CONTAINS InterPro DOMAIN/s: Transketolase, bacterial-like (InterPro:IPR005478), Transketolase, N-terminal (InterPro:IPR005474), Transketolase, C-terminal (InterPro:IPR005476), Transketolase, C-terminal/Pyruvate-ferredoxin oxidoreductase, domain II (InterPro:IPR009014), Transketolase-like, C-terminal (InterPro:IPR015941), Transketolase-like, pyrimidine-binding domain (InterPro:IPR005475), Transketolase binding site (InterPro:IPR020826); BEST Arabidopsis thaliana protein match is: Transketolase (TAIR:AT3G60750.1); Has 19460 Blast hits to 19400 proteins in 2776 species: Archae - 200; Bacteria - 11520; Metazoa - 310; Fungi - 312; Plants - 211; Viruses - 0; Other Eukaryotes - 6907 (source: NCBI BLink).
CALVIN-PWY	64.9	-1	Calvin-Benson-Bassham cycle	AT3G04790	Ribose 5-phosphate isomerase, type A protein; FUNCTIONS IN: ribose-5-phosphate isomerase activity; INVOLVED IN: defense response to bacterium, reductive pentose-phosphate cycle; LOCATED IN: thylakoid, chloroplast thylakoid membrane, chloroplast stroma, chloroplast, chloroplast envelope; EXPRESSED IN: 26 plant structures; EXPRESSED DURING: 14 growth stages; CONTAINS InterPro DOMAIN/s: Ribose 5-phosphate isomerase, type A (InterPro:IPR004788); BEST Arabidopsis thaliana protein match is: ribose-5-phosphate isomerase 2 (TAIR:AT2G01290.1); Has 5044 Blast hits to 5043 proteins in 1956 species: Archae - 235; Bacteria - 3572; Metazoa - 110; Fungi - 145; Plants - 141; Viruses - 0; Other Eukaryotes - 841 (source: NCBI BLink).
CALVIN-PWY	64.9	-1	Calvin-Benson-Bassham cycle	AT3G12780	nuclear phosphoglycerate kinase (PGK1)
CALVIN-PWY	64.9	-1	Calvin-Benson-Bassham cycle	AT3G26650	Encodes one of the two subunits forming the photosynthetic glyceraldehyde-3-phosphate dehydrogenase (GAPDH) and as such a constituent of the supramolecular complex with phosphoribulokinase (PRK) thought to be linked by a small peptide encoded by CP12-2. GapA-1 is coordinately expressed by light with PRK and CP12-2. The enzyme activity, tested in leaf protein extracts dropped significantly after external sucrose treatment for the photosynthetic GAPDH (NADPH-dependent) but not for the cytosolic GAPDH (NADH-dependent).
CALVIN-PWY	64.9	-1	Calvin-Benson-Bassham cycle	AT3G54050	Encodes a chloroplastic fructose 1,6-bisphosphate phosphatase. also known as HCEF1 (High Cyclic Electron Flow 1). hcef1 mutants have constitutively elevated electron flow (CEFI) and plants with antisense suppression of this enzyme have higher levels of net leaf photosynthesis  and increased sucrose biosynthesis.
CALVIN-PWY	64.9	-1	Calvin-Benson-Bassham cycle	AT3G55800	Encodes the chloroplast enzyme sedoheptulose-1,7-bisphosphatase (SBPase), involved in the carbon reduction of the Calvin cycle. Increase in SBPase activity in transgenic lines accumulate up to 50% more sucrose and starch than wild-type.
CALVIN-PWY	64.9	-1	Calvin-Benson-Bassham cycle	AT3G60750	Transketolase; FUNCTIONS IN: catalytic activity, transketolase activity; INVOLVED IN: response to cadmium ion, response to salt stress; LOCATED IN: chloroplast stroma, chloroplast, chloroplast envelope; EXPRESSED IN: 27 plant structures; EXPRESSED DURING: 17 growth stages; CONTAINS InterPro DOMAIN/s: Transketolase, bacterial-like (InterPro:IPR005478), Transketolase, N-terminal (InterPro:IPR005474), Transketolase, C-terminal (InterPro:IPR005476), Transketolase-like, C-terminal (InterPro:IPR015941), Transketolase, C-terminal/Pyruvate-ferredoxin oxidoreductase, domain II (InterPro:IPR009014), Transketolase-like, pyrimidine-binding domain (InterPro:IPR005475), Transketolase binding site (InterPro:IPR020826); BEST Arabidopsis thaliana protein match is: Transketolase (TAIR:AT2G45290.1); Has 19296 Blast hits to 19203 proteins in 2759 species: Archae - 202; Bacteria - 11440; Metazoa - 321; Fungi - 314; Plants - 204; Viruses - 0; Other Eukaryotes - 6815 (source: NCBI BLink).
CALVIN-PWY	64.9	-1	Calvin-Benson-Bassham cycle	AT3G62410	CP12-2 encodes a small peptide found in the chloroplast stroma. It belongs to the CP12 gene family thought to be involved in the formation of a supramolecular complex with glyceraldehyde-3-phosphate dehydrogenase (GAPDH) and phosphoribulokinase (PRK) embedded in the Calvin cycle. CP12-2 is coordinately regulated by light with the photosynthetic GAPDH and PRK. The annotation of this gene is based on article 32494.
CALVIN-PWY	64.9	-1	Calvin-Benson-Bassham cycle	AT4G26520	Aldolase superfamily protein; CONTAINS InterPro DOMAIN/s: Aldolase-type TIM barrel (InterPro:IPR013785), Fructose-bisphosphate aldolase, class-I (InterPro:IPR000741); BEST Arabidopsis thaliana protein match is: Aldolase superfamily protein (TAIR:AT4G26530.2); Has 1807 Blast hits to 1807 proteins in 277 species: Archae - 0; Bacteria - 0; Metazoa - 736; Fungi - 347; Plants - 385; Viruses - 0; Other Eukaryotes - 339 (source: NCBI BLink).
CALVIN-PWY	64.9	-1	Calvin-Benson-Bassham cycle	AT4G26530	Aldolase superfamily protein; FUNCTIONS IN: fructose-bisphosphate aldolase activity; INVOLVED IN: glycolysis, metabolic process; LOCATED IN: chloroplast; EXPRESSED IN: 18 plant structures; EXPRESSED DURING: 11 growth stages; CONTAINS InterPro DOMAIN/s: Aldolase-type TIM barrel (InterPro:IPR013785), Fructose-bisphosphate aldolase, class-I (InterPro:IPR000741); BEST Arabidopsis thaliana protein match is: Aldolase superfamily protein (TAIR:AT4G26520.1); Has 1807 Blast hits to 1807 proteins in 277 species: Archae - 0; Bacteria - 0; Metazoa - 736; Fungi - 347; Plants - 385; Viruses - 0; Other Eukaryotes - 339 (source: NCBI BLink).
CALVIN-PWY	64.9	-1	Calvin-Benson-Bassham cycle	AT4G38970	Protein is tyrosine-phosphorylated and its phosphorylation state is modulated in response to ABA in Arabidopsis thaliana seeds.
CALVIN-PWY	64.9	-1	Calvin-Benson-Bassham cycle	AT5G38410	Encodes a member of the Rubisco small subunit (RBCS) multigene family: RBCS1A (At1g67090), RBCS1B (At5g38430), RBCS2B (At5g38420), and RBCS3B (At5g38410). Functions to yield sufficient Rubisco content for leaf photosynthetic capacity.
CALVIN-PWY	64.9	-1	Calvin-Benson-Bassham cycle	AT5G38420	Encodes a member of the Rubisco small subunit (RBCS) multigene family: RBCS1A (At1g67090), RBCS1B (At5g38430), RBCS2B (At5g38420), and RBCS3B (At5g38410).
CALVIN-PWY	64.9	-1	Calvin-Benson-Bassham cycle	AT5G38430	Encodes a member of the Rubisco small subunit (RBCS) multigene family: RBCS1A (At1g67090), RBCS1B (At5g38430), RBCS2B (At5g38420), and RBCS3B (At5g38410).
PWY-2902	63.6	1	cytokinins-<i>O</i>-glucoside biosynthesis	AT1G10400	UDP-Glycosyltransferase superfamily protein; FUNCTIONS IN: UDP-glycosyltransferase activity, transferase activity, transferring glycosyl groups; INVOLVED IN: metabolic process; LOCATED IN: endomembrane system; EXPRESSED IN: root; CONTAINS InterPro DOMAIN/s: UDP-glucuronosyl/UDP-glucosyltransferase (InterPro:IPR002213), Tudor subgroup (InterPro:IPR018351); BEST Arabidopsis thaliana protein match is: UDP-Glycosyltransferase superfamily protein (TAIR:AT5G14860.1); Has 30201 Blast hits to 17322 proteins in 780 species: Archae - 12; Bacteria - 1396; Metazoa - 17338; Fungi - 3422; Plants - 5037; Viruses - 0; Other Eukaryotes - 2996 (source: NCBI BLink).
PWY-2902	63.6	1	cytokinins-<i>O</i>-glucoside biosynthesis	AT1G22370	UDP-glucosyl transferase 85A5 (UGT85A5); FUNCTIONS IN: transferase activity, transferring glycosyl groups, glucuronosyltransferase activity; INVOLVED IN: metabolic process; EXPRESSED IN: 15 plant structures; EXPRESSED DURING: 9 growth stages; CONTAINS InterPro DOMAIN/s: UDP-glucuronosyl/UDP-glucosyltransferase (InterPro:IPR002213); BEST Arabidopsis thaliana protein match is: UDP-glucosyl transferase 85A2 (TAIR:AT1G22360.1); Has 35333 Blast hits to 34131 proteins in 2444 species: Archae - 798; Bacteria - 22429; Metazoa - 974; Fungi - 991; Plants - 531; Viruses - 0; Other Eukaryotes - 9610 (source: NCBI BLink).
PWY-2902	63.6	1	cytokinins-<i>O</i>-glucoside biosynthesis	AT1G22380	Encodes a putative UDP-glucosyl transferase. At1g22380 was initially identified as encoding the protein AAF87154, which has been classified as a bHLH protein (AtbHLH152). Subsequently it has been found that the AAF87154 protein appears to be encoded by the AT1G23970 genomic locus.
PWY-2902	63.6	1	cytokinins-<i>O</i>-glucoside biosynthesis	AT1G22400	UGT85A1; FUNCTIONS IN: in 6 functions; INVOLVED IN: metabolic process; LOCATED IN: cellular_component unknown; EXPRESSED IN: 22 plant structures; EXPRESSED DURING: 10 growth stages; CONTAINS InterPro DOMAIN/s: UDP-glucuronosyl/UDP-glucosyltransferase (InterPro:IPR002213); BEST Arabidopsis thaliana protein match is: UDP-glucosyl transferase 85A3 (TAIR:AT1G22380.1); Has 7940 Blast hits to 7832 proteins in 421 species: Archae - 0; Bacteria - 227; Metazoa - 2330; Fungi - 36; Plants - 5216; Viruses - 60; Other Eukaryotes - 71 (source: NCBI BLink).
PWY-2902	63.6	-1	cytokinins-<i>O</i>-glucoside biosynthesis	AT1G78270	UDP-glucosyl transferase 85A4 (UGT85A4); FUNCTIONS IN: transferase activity, transferring hexosyl groups, UDP-glycosyltransferase activity, glucuronosyltransferase activity; INVOLVED IN: metabolic process; LOCATED IN: cellular_component unknown; EXPRESSED IN: 17 plant structures; EXPRESSED DURING: 9 growth stages; CONTAINS InterPro DOMAIN/s: UDP-glucuronosyl/UDP-glucosyltransferase (InterPro:IPR002213); BEST Arabidopsis thaliana protein match is: UDP-Glycosyltransferase superfamily protein (TAIR:AT1G22400.1); Has 7993 Blast hits to 7875 proteins in 425 species: Archae - 0; Bacteria - 192; Metazoa - 2327; Fungi - 67; Plants - 5218; Viruses - 120; Other Eukaryotes - 69 (source: NCBI BLink).
PWY-2902	63.6	1	cytokinins-<i>O</i>-glucoside biosynthesis	AT2G16890	UDP-Glycosyltransferase superfamily protein; FUNCTIONS IN: transferase activity, transferring hexosyl groups, UDP-glycosyltransferase activity, transferase activity, transferring glycosyl groups; INVOLVED IN: metabolic process; LOCATED IN: endomembrane system; EXPRESSED IN: 17 plant structures; EXPRESSED DURING: 7 growth stages; CONTAINS InterPro DOMAIN/s: UDP-glucuronosyl/UDP-glucosyltransferase (InterPro:IPR002213), Tudor subgroup (InterPro:IPR018351); BEST Arabidopsis thaliana protein match is: UDP-Glycosyltransferase superfamily protein (TAIR:AT5G14860.1); Has 7578 Blast hits to 7495 proteins in 486 species: Archae - 0; Bacteria - 511; Metazoa - 1925; Fungi - 34; Plants - 4955; Viruses - 98; Other Eukaryotes - 55 (source: NCBI BLink).
PWY-2902	63.6	-1	cytokinins-<i>O</i>-glucoside biosynthesis	AT2G28080	UDP-Glycosyltransferase superfamily protein; FUNCTIONS IN: transferase activity, transferring glycosyl groups; INVOLVED IN: metabolic process; LOCATED IN: cellular_component unknown; EXPRESSED IN: 22 plant structures; EXPRESSED DURING: 15 growth stages; CONTAINS InterPro DOMAIN/s: UDP-glucuronosyl/UDP-glucosyltransferase (InterPro:IPR002213); BEST Arabidopsis thaliana protein match is: UDP-Glycosyltransferase superfamily protein (TAIR:AT2G36970.1); Has 5722 Blast hits to 5664 proteins in 294 species: Archae - 0; Bacteria - 48; Metazoa - 520; Fungi - 23; Plants - 5076; Viruses - 28; Other Eukaryotes - 27 (source: NCBI BLink).
PWY-2902	63.6	1	cytokinins-<i>O</i>-glucoside biosynthesis	AT2G30140	Encodes a putative glycosyltransferase. Regulates flowering time via FLOWERING LOCUS C.
PWY-2902	63.6	1	cytokinins-<i>O</i>-glucoside biosynthesis	AT2G36750	UDP-glucosyl transferase 73C1 (UGT73C1); CONTAINS InterPro DOMAIN/s: UDP-glucuronosyl/UDP-glucosyltransferase (InterPro:IPR002213); BEST Arabidopsis thaliana protein match is: don-glucosyltransferase 1 (TAIR:AT2G36800.1); Has 7705 Blast hits to 7611 proteins in 415 species: Archae - 0; Bacteria - 205; Metazoa - 2197; Fungi - 31; Plants - 5129; Viruses - 79; Other Eukaryotes - 64 (source: NCBI BLink).
PWY-2902	63.6	1	cytokinins-<i>O</i>-glucoside biosynthesis	AT2G36760	UDP-glucosyl transferase 73C2 (UGT73C2); FUNCTIONS IN: transferase activity, transferring hexosyl groups, UDP-glycosyltransferase activity, transferase activity, transferring glycosyl groups; INVOLVED IN: metabolic process; LOCATED IN: endomembrane system; EXPRESSED IN: flower, stamen; EXPRESSED DURING: 4 anthesis; CONTAINS InterPro DOMAIN/s: UDP-glucuronosyl/UDP-glucosyltransferase (InterPro:IPR002213); BEST Arabidopsis thaliana protein match is: UDP-Glycosyltransferase superfamily protein (TAIR:AT2G36780.1); Has 7948 Blast hits to 7837 proteins in 437 species: Archae - 0; Bacteria - 325; Metazoa - 2303; Fungi - 35; Plants - 5121; Viruses - 97; Other Eukaryotes - 67 (source: NCBI BLink).
PWY-2902	63.6	1	cytokinins-<i>O</i>-glucoside biosynthesis	AT2G36770	UDP-Glycosyltransferase superfamily protein; FUNCTIONS IN: transferase activity, transferring hexosyl groups, UDP-glycosyltransferase activity, transferase activity, transferring glycosyl groups; INVOLVED IN: metabolic process; LOCATED IN: cellular_component unknown; CONTAINS InterPro DOMAIN/s: UDP-glucuronosyl/UDP-glucosyltransferase (InterPro:IPR002213); BEST Arabidopsis thaliana protein match is: UDP-Glycosyltransferase superfamily protein (TAIR:AT2G36780.1); Has 7907 Blast hits to 7812 proteins in 435 species: Archae - 0; Bacteria - 273; Metazoa - 2293; Fungi - 33; Plants - 5130; Viruses - 108; Other Eukaryotes - 70 (source: NCBI BLink).
PWY-2902	63.6	1	cytokinins-<i>O</i>-glucoside biosynthesis	AT2G36780	UDP-Glycosyltransferase superfamily protein; FUNCTIONS IN: UDP-glycosyltransferase activity, transferase activity, transferring glycosyl groups; INVOLVED IN: metabolic process; LOCATED IN: cellular_component unknown; CONTAINS InterPro DOMAIN/s: UDP-glucuronosyl/UDP-glucosyltransferase (InterPro:IPR002213); BEST Arabidopsis thaliana protein match is: UDP-Glycosyltransferase superfamily protein (TAIR:AT2G36770.1); Has 8038 Blast hits to 7938 proteins in 460 species: Archae - 0; Bacteria - 340; Metazoa - 2374; Fungi - 35; Plants - 5114; Viruses - 105; Other Eukaryotes - 70 (source: NCBI BLink).
PWY-2902	63.6	-1	cytokinins-<i>O</i>-glucoside biosynthesis	AT2G36970	UDP-Glycosyltransferase superfamily protein; FUNCTIONS IN: UDP-glycosyltransferase activity, transferase activity, transferring glycosyl groups; INVOLVED IN: metabolic process; LOCATED IN: endomembrane system; EXPRESSED IN: 20 plant structures; EXPRESSED DURING: 13 growth stages; CONTAINS InterPro DOMAIN/s: UDP-glucuronosyl/UDP-glucosyltransferase (InterPro:IPR002213); BEST Arabidopsis thaliana protein match is: UDP-Glycosyltransferase superfamily protein (TAIR:AT2G28080.1); Has 6237 Blast hits to 6170 proteins in 304 species: Archae - 0; Bacteria - 63; Metazoa - 975; Fungi - 25; Plants - 5115; Viruses - 22; Other Eukaryotes - 37 (source: NCBI BLink).
PWY-2902	63.6	1	cytokinins-<i>O</i>-glucoside biosynthesis	AT3G53160	UDP-glucosyl transferase 73C7 (UGT73C7); CONTAINS InterPro DOMAIN/s: UDP-glucuronosyl/UDP-glucosyltransferase (InterPro:IPR002213); BEST Arabidopsis thaliana protein match is: UDP-Glycosyltransferase superfamily protein (TAIR:AT2G36770.1); Has 7083 Blast hits to 7007 proteins in 427 species: Archae - 0; Bacteria - 435; Metazoa - 1539; Fungi - 21; Plants - 4999; Viruses - 33; Other Eukaryotes - 56 (source: NCBI BLink).
